<?xml version="1.0" encoding="UTF-8"?>
<svg width="150px" height="150px" viewBox="0 0 150 150" version="1.1" xmlns="http://www.w3.org/2000/svg" xmlns:xlink="http://www.w3.org/1999/xlink">
    <!-- Generator: Sketch 56.3 (81716) - https://sketch.com -->
    <title>icon_self-managed</title>
    <desc>Created with Sketch.</desc>
    <g id="icon_self-managed" stroke="none" stroke-width="1" fill="none" fill-rule="evenodd">
        <path d="M34,31 L115,31 C118.313708,31 121,33.6862915 121,37 L121,51 C121,54.3137085 118.313708,57 115,57 L34,57 C30.6862915,57 28,54.3137085 28,51 L28,37 C28,33.6862915 30.6862915,31 34,31 Z M42.4843854,41.7714286 C41.2535794,41.7714286 40.255814,42.769194 40.255814,44 C40.255814,45.230806 41.2535794,46.2285714 42.4843854,46.2285714 L55.6900332,46.2285714 C56.9208392,46.2285714 57.9186047,45.230806 57.9186047,44 C57.9186047,42.769194 56.9208392,41.7714286 55.6900332,41.7714286 L42.4843854,41.7714286 Z M34,62 L115,62 C118.313708,62 121,64.6862915 121,68 L121,82 C121,85.3137085 118.313708,88 115,88 L34,88 C30.6862915,88 28,85.3137085 28,82 L28,68 C28,64.6862915 30.6862915,62 34,62 Z M42.4843854,72.7714286 C41.2535794,72.7714286 40.255814,73.769194 40.255814,75 C40.255814,76.230806 41.2535794,77.2285714 42.4843854,77.2285714 L55.6900332,77.2285714 C56.9208392,77.2285714 57.9186047,76.230806 57.9186047,75 C57.9186047,73.769194 56.9208392,72.7714286 55.6900332,72.7714286 L42.4843854,72.7714286 Z M34,93 L115,93 C118.313708,93 121,95.6862915 121,99 L121,113 C121,116.313708 118.313708,119 115,119 L34,119 C30.6862915,119 28,116.313708 28,113 L28,99 C28,95.6862915 30.6862915,93 34,93 Z M42.4843854,103.771429 C41.2535794,103.771429 40.255814,104.769194 40.255814,106 C40.255814,107.230806 41.2535794,108.228571 42.4843854,108.228571 L55.6900332,108.228571 C56.9208392,108.228571 57.9186047,107.230806 57.9186047,106 C57.9186047,104.769194 56.9208392,103.771429 55.6900332,103.771429 L42.4843854,103.771429 Z" id="Shape" fill="#DFECF9"></path>
        <g id="gitlab-icon-rgb" transform="translate(51.000000, 53.000000)" fill-rule="nonzero">
            <g id="g48" transform="translate(15.053254, 16.899408)" fill="#E24329">
                <polygon id="path50" points="8.94461538 27.2534911 8.94461538 27.2534911 17.772071 0.0894674556 0.121420118 0.0894674556"></polygon>
            </g>
            <g id="g56" transform="translate(2.698225, 16.899408)" fill="#FC6D26">
                <polygon id="path58" points="21.2960947 27.2534911 12.4657988 0.0894674556 0.110769231 0.0894674556"></polygon>
            </g>
            <g id="g64" transform="translate(0.000000, 16.899408)" fill="#FCA326">
                <path d="M2.79905325,0.0979881657 L2.79905325,0.0979881657 L0.113609467,8.35171598 C-0.131076923,9.1043787 0.135905325,9.92904142 0.775384615,10.3952663 L23.9943195,27.2662722 L2.79905325,0.0979881657 Z" id="path66"></path>
            </g>
            <g id="g72" transform="translate(2.698225, 0.000000)" fill="#E24329">
                <path d="M0.110769231,16.9973964 L12.4814201,16.9973964 L7.15739645,0.637633136 C7.032,0.263147929 6.68108876,0.0106508876 6.28615385,0.0106508876 C5.89121893,0.0106508876 5.54030769,0.263147929 5.41491124,0.637633136 L0.110769231,16.9973964 Z" id="path74"></path>
            </g>
            <g id="g76" transform="translate(24.000000, 16.899408)" fill="#FC6D26">
                <polygon id="path78" points="0 27.2534911 8.82745562 0.0894674556 21.2023669 0.0894674556"></polygon>
            </g>
            <g id="g80" transform="translate(24.000000, 16.899408)" fill="#FCA326">
                <path d="M21.1938462,0.0979881657 L21.1938462,0.0979881657 L23.8792899,8.35171598 C24.1253964,9.1043787 23.8581302,9.92975148 23.2175148,10.3952663 L0,27.2534911 L21.1881657,0.0979881657 L21.1938462,0.0979881657 Z" id="path82"></path>
            </g>
            <g id="g84" transform="translate(32.804734, 0.000000)" fill="#E24329">
                <path d="M12.3947929,16.9973964 L0.0255621302,16.9973964 L5.33964497,0.637633136 C5.46433136,0.262721893 5.81510059,0.00965680473 6.21017751,0.00965680473 C6.60525444,0.00965680473 6.95602367,0.262721893 7.08071006,0.637633136 L12.3947929,16.9973964 Z" id="path86"></path>
            </g>
        </g>
    </g>
</svg>

